{
  "shell_port": 32945,
  "iopub_port": 56691,
  "stdin_port": 60601,
  "control_port": 52531,
  "hb_port": 42745,
  "ip": "127.0.0.1",
  "key": "d09ec43d-00775417920e1cfa1e0c62a1",
  "transport": "tcp",
  "signature_scheme": "hmac-sha256",
  "kernel_name": ""
}